<?xml version="1.0" encoding="UTF-8" standalone="no"?>
<svg
   xmlns:dc="http://purl.org/dc/elements/1.1/"
   xmlns:cc="http://creativecommons.org/ns#"
   xmlns:rdf="http://www.w3.org/1999/02/22-rdf-syntax-ns#"
   xmlns:svg="http://www.w3.org/2000/svg"
   xmlns="http://www.w3.org/2000/svg"
   xmlns:sodipodi="http://sodipodi.sourceforge.net/DTD/sodipodi-0.dtd"
   xmlns:inkscape="http://www.inkscape.org/namespaces/inkscape"
   version="1.1"
   x="0px"
   y="0px"
   viewBox="0 0 32 40"
   enable-background="new 0 0 32 32"
   xml:space="preserve"
   id="svg8"
   sodipodi:docname="mailinglist.svg"
   inkscape:version="0.92.3 (2405546, 2018-03-11)"><metadata
     id="metadata14"><rdf:RDF><cc:Work
         rdf:about=""><dc:format>image/svg+xml</dc:format><dc:type
           rdf:resource="http://purl.org/dc/dcmitype/StillImage" /></cc:Work></rdf:RDF></metadata><defs
     id="defs12" /><sodipodi:namedview
     pagecolor="#ffffff"
     bordercolor="#666666"
     borderopacity="1"
     objecttolerance="10"
     gridtolerance="10"
     guidetolerance="10"
     inkscape:pageopacity="0"
     inkscape:pageshadow="2"
     inkscape:window-width="1203"
     inkscape:window-height="918"
     id="namedview10"
     showgrid="false"
     inkscape:zoom="5.9"
     inkscape:cx="16"
     inkscape:cy="20"
     inkscape:window-x="0"
     inkscape:window-y="0"
     inkscape:window-maximized="0"
     inkscape:current-layer="svg8" /><path
     d="M26,19v6c0,1.206-0.799,3-3,3H5c-1.206,0-3-0.799-3-3V13c0-1.206,0.799-3,3-3h12c0.553,0,1,0.448,1,1s-0.447,1-1,1H5.744  L14,17.779l3.427-2.398c0.452-0.316,1.076-0.207,1.393,0.246s0.206,1.076-0.246,1.393l-4,2.8C14.401,19.939,14.201,20,14,20  s-0.401-0.061-0.573-0.181L4,13.221V25c0,0.806,0.55,0.988,1.012,1H23c0.806,0,0.988-0.55,1-1.012V19c0-0.553,0.447-1,1-1  S26,18.447,26,19z M20.999,4c0.552,0,1-0.448,1-1c0-0.552-0.448-1-1-1c-0.552,0-1,0.448-1,1C19.999,3.552,20.447,4,20.999,4z   M24.999,4h6c0.553,0,1-0.448,1-1s-0.447-1-1-1h-6c-0.553,0-1,0.448-1,1S24.446,4,24.999,4z M20.999,8c0.552,0,1-0.448,1-1  c0-0.552-0.448-1-1-1c-0.552,0-1,0.448-1,1C19.999,7.552,20.447,8,20.999,8z M30.999,6h-6c-0.553,0-1,0.448-1,1s0.447,1,1,1h6  c0.553,0,1-0.448,1-1S31.552,6,30.999,6z M20.999,12c0.552,0,1-0.448,1-1c0-0.552-0.448-1-1-1c-0.552,0-1,0.448-1,1  C19.999,11.552,20.447,12,20.999,12z M30.999,10h-6c-0.553,0-1,0.448-1,1s0.447,1,1,1h6c0.553,0,1-0.448,1-1S31.552,10,30.999,10z   M20.999,16c0.552,0,1-0.448,1-1c0-0.552-0.448-1-1-1c-0.552,0-1,0.448-1,1C19.999,15.552,20.447,16,20.999,16z M30.999,14h-6  c-0.553,0-1,0.448-1,1s0.447,1,1,1h6c0.553,0,1-0.448,1-1S31.552,14,30.999,14z"
     id="path2" /></svg>